CPU/wave.vcd
$date
	Sun May 31 11:09:24 2026
$end
$version
	Icarus Verilog
$end
$timescale
	1ps
$end
$scope module cpu_top_tb $end
$var reg 1 ! clk $end
$var reg 1 " reset $end
$scope module dut $end
$var wire 1 # axi_busy $end
$var wire 1 $ branch_taken $end
$var wire 1 ! clk $end
$var wire 32 % debug_alu_result [31:0] $end
$var wire 32 & debug_instr [31:0] $end
$var wire 32 ' debug_mem [31:0] $end
$var wire 32 ( debug_pc [31:0] $end
$var wire 32 ) debug_wb [31:0] $end
$var wire 1 * flush $end
$var wire 1 + global_stall $end
$var wire 1 " reset $end
$var wire 1 , wb_valid $end
$var wire 32 - writeback_data [31:0] $end
$var wire 2 . wb_wb_sel [1:0] $end
$var wire 2 / wb_sel [1:0] $end
$var wire 1 0 wb_reg_write $end
$var wire 5 1 wb_rd [4:0] $end
$var wire 32 2 wb_pc_plus4 [31:0] $end
$var wire 32 3 wb_mem_data [31:0] $end
$var wire 32 4 wb_alu_result [31:0] $end
$var wire 1 5 stall $end
$var wire 32 6 rs2_data [31:0] $end
$var wire 5 7 rs2 [4:0] $end
$var wire 32 8 rs1_data [31:0] $end
$var wire 5 9 rs1 [4:0] $end
$var wire 1 : reg_write $end
$var wire 1 ; real_ex_mem_read $end
$var wire 5 < rd [4:0] $end
$var wire 32 = pc_plus4 [31:0] $end
$var wire 32 > pc_current [31:0] $end
$var wire 7 ? opcode [6:0] $end
$var wire 32 @ next_pc [31:0] $end
$var wire 1 A mem_write $end
$var wire 2 B mem_wb_sel [1:0] $end
$var wire 32 C mem_rs2_data [31:0] $end
$var wire 1 D mem_reg_write $end
$var wire 1 E mem_read $end
$var wire 5 F mem_rd [4:0] $end
$var wire 32 G mem_pc_plus4 [31:0] $end
$var wire 1 H mem_mem_write $end
$var wire 1 I mem_mem_read $end
$var wire 1 J mem_jump $end
$var wire 32 K mem_jalr_target [31:0] $end
$var wire 1 L mem_jalr $end
$var wire 32 M mem_jal_target [31:0] $end
$var wire 32 N mem_data [31:0] $end
$var wire 32 O mem_branch_target [31:0] $end
$var wire 1 P mem_branch_taken $end
$var wire 1 Q mem_branch $end
$var wire 32 R mem_alu_result [31:0] $end
$var wire 1 S jump $end
$var wire 32 T jalr_target [31:0] $end
$var wire 1 U jalr $end
$var wire 32 V jal_target [31:0] $end
$var wire 32 W instruction [31:0] $end
$var wire 32 X imm_out [31:0] $end
$var wire 32 Y id_pc_plus4 [31:0] $end
$var wire 32 Z id_pc_current [31:0] $end
$var wire 32 [ id_instruction [31:0] $end
$var wire 7 \ funct7 [6:0] $end
$var wire 3 ] funct3 [2:0] $end
$var wire 2 ^ forward_b [1:0] $end
$var wire 2 _ forward_a [1:0] $end
$var wire 2 ` ex_wb_sel [1:0] $end
$var wire 32 a ex_rs2_data [31:0] $end
$var wire 5 b ex_rs2 [4:0] $end
$var wire 32 c ex_rs1_data [31:0] $end
$var wire 5 d ex_rs1 [4:0] $end
$var wire 1 e ex_reg_write $end
$var wire 5 f ex_rd [4:0] $end
$var wire 32 g ex_pc_plus4 [31:0] $end
$var wire 32 h ex_pc_current [31:0] $end
$var wire 1 i ex_mem_write $end
$var wire 1 j ex_jump $end
$var wire 1 k ex_jalr $end
$var wire 32 l ex_imm_out [31:0] $end
$var wire 3 m ex_funct3 [2:0] $end
$var wire 1 n ex_branch $end
$var wire 1 o ex_alu_src $end
$var wire 4 p ex_alu_sel [3:0] $end
$var wire 1 q comparator_branch_taken $end
$var wire 32 r branch_target [31:0] $end
$var wire 1 s branch $end
$var wire 1 t alu_src $end
$var wire 4 u alu_sel [3:0] $end
$var wire 32 v alu_result [31:0] $end
$var wire 32 w alu_operand_b [31:0] $end
$var reg 32 x cycle_counter [31:0] $end
$var reg 32 y flush_counter [31:0] $end
$var reg 32 z forwarded_rs1_data [31:0] $end
$var reg 32 { forwarded_rs2_data [31:0] $end
$var reg 32 | instr_counter [31:0] $end
$var reg 32 } stall_counter [31:0] $end
$scope module ALU $end
$var wire 32 ~ operand_a [31:0] $end
$var wire 32 !" operand_b [31:0] $end
$var wire 4 "" alu_sel [3:0] $end
$var reg 32 #" alu_result [31:0] $end
$upscope $end
$scope module ALU_CONTROL $end
$var wire 7 $" opcode [6:0] $end
$var wire 7 %" funct7 [6:0] $end
$var wire 3 &" funct3 [2:0] $end
$var reg 4 '" alu_sel [3:0] $end
$upscope $end
$scope module ALU_SRC_MUX $end
$var wire 32 (" rs2_data [31:0] $end
$var wire 32 )" operand_b [31:0] $end
$var wire 32 *" imm_data [31:0] $end
$var wire 1 o alu_src $end
$upscope $end
$scope module BRANCH_TARGET $end
$var wire 32 +" pc_current [31:0] $end
$var wire 32 ," branch_target [31:0] $end
$var wire 32 -" branch_imm [31:0] $end
$upscope $end
$scope module COMPARATOR $end
$var wire 32 ." operand_a [31:0] $end
$var wire 32 /" operand_b [31:0] $end
$var wire 3 0" funct3 [2:0] $end
$var reg 1 q branch_taken $end
$upscope $end
$scope module CONTROL $end
$var wire 7 1" opcode [6:0] $end
$var reg 1 t alu_src $end
$var reg 1 s branch $end
$var reg 1 U jalr $end
$var reg 1 S jump $end
$var reg 1 E mem_read $end
$var reg 1 2" mem_to_reg $end
$var reg 1 A mem_write $end
$var reg 1 : reg_write $end
$var reg 2 3" wb_sel [1:0] $end
$upscope $end
$scope module DECODER $end
$var wire 5 4" rs2 [4:0] $end
$var wire 5 5" rs1 [4:0] $end
$var wire 5 6" rd [4:0] $end
$var wire 7 7" opcode [6:0] $end
$var wire 32 8" instruction [31:0] $end
$var wire 7 9" funct7 [6:0] $end
$var wire 3 :" funct3 [2:0] $end
$upscope $end
$scope module DMEM $end
$var wire 1 ! clk $end
$var wire 32 ;" write_data [31:0] $end
$var wire 1 H mem_write $end
$var wire 1 I mem_read $end
$var wire 32 <" address [31:0] $end
$var reg 32 =" read_data [31:0] $end
$upscope $end
$scope module EX_MEM $end
$var wire 32 >" alu_result [31:0] $end
$var wire 1 $ branch_taken $end
$var wire 32 ?" branch_target [31:0] $end
$var wire 1 ! clk $end
$var wire 32 @" ex_rs2_data [31:0] $end
$var wire 32 A" jal_target [31:0] $end
$var wire 32 B" jalr_target [31:0] $end
$var wire 1 " reset $end
$var wire 2 C" ex_wb_sel [1:0] $end
$var wire 1 e ex_reg_write $end
$var wire 5 D" ex_rd [4:0] $end
$var wire 32 E" ex_pc_plus4 [31:0] $end
$var wire 1 i ex_mem_write $end
$var wire 1 ; ex_mem_read $end
$var wire 1 j ex_jump $end
$var wire 1 k ex_jalr $end
$var wire 1 n ex_branch $end
$var reg 32 F" mem_alu_result [31:0] $end
$var reg 1 Q mem_branch $end
$var reg 1 P mem_branch_taken $end
$var reg 32 G" mem_branch_target [31:0] $end
$var reg 32 H" mem_jal_target [31:0] $end
$var reg 1 L mem_jalr $end
$var reg 32 I" mem_jalr_target [31:0] $end
$var reg 1 J mem_jump $end
$var reg 1 I mem_mem_read $end
$var reg 1 H mem_mem_write $end
$var reg 32 J" mem_pc_plus4 [31:0] $end
$var reg 5 K" mem_rd [4:0] $end
$var reg 1 D mem_reg_write $end
$var reg 32 L" mem_rs2_data [31:0] $end
$var reg 2 M" mem_wb_sel [1:0] $end
$upscope $end
$scope module FU $end
$var wire 5 N" mem_rd [4:0] $end
$var wire 1 D mem_reg_write $end
$var wire 1 0 wb_reg_write $end
$var wire 5 O" wb_rd [4:0] $end
$var wire 5 P" ex_rs2 [4:0] $end
$var wire 5 Q" ex_rs1 [4:0] $end
$var reg 2 R" forward_a [1:0] $end
$var reg 2 S" forward_b [1:0] $end
$upscope $end
$scope module HDU $end
$var wire 5 T" id_rs1 [4:0] $end
$var wire 5 U" id_rs2 [4:0] $end
$var wire 5 V" ex_rd [4:0] $end
$var wire 1 ; ex_mem_read $end
$var reg 1 5 stall $end
$upscope $end
$scope module ID_EX $end
$var wire 4 W" alu_sel [3:0] $end
$var wire 1 X" alu_src $end
$var wire 1 Y" branch $end
$var wire 1 ! clk $end
$var wire 1 * flush $end
$var wire 3 Z" funct3 [2:0] $end
$var wire 1 [" jalr $end
$var wire 1 \" jump $end
$var wire 1 ]" mem_read $end
$var wire 1 ^" mem_write $end
$var wire 5 _" rd [4:0] $end
$var wire 1 `" reg_write $end
$var wire 1 " reset $end
$var wire 5 a" rs1 [4:0] $end
$var wire 5 b" rs2 [4:0] $end
$var wire 2 c" wb_sel [1:0] $end
$var wire 32 d" rs2_data [31:0] $end
$var wire 32 e" rs1_data [31:0] $end
$var wire 32 f" imm_out [31:0] $end
$var wire 32 g" id_pc_plus4 [31:0] $end
$var wire 32 h" id_pc_current [31:0] $end
$var reg 4 i" ex_alu_sel [3:0] $end
$var reg 1 o ex_alu_src $end
$var reg 1 n ex_branch $end
$var reg 3 j" ex_funct3 [2:0] $end
$var reg 32 k" ex_imm_out [31:0] $end
$var reg 1 k ex_jalr $end
$var reg 1 j ex_jump $end
$var reg 1 ; ex_mem_read $end
$var reg 1 i ex_mem_write $end
$var reg 32 l" ex_pc_current [31:0] $end
$var reg 32 m" ex_pc_plus4 [31:0] $end
$var reg 5 n" ex_rd [4:0] $end
$var reg 1 e ex_reg_write $end
$var reg 5 o" ex_rs1 [4:0] $end
$var reg 32 p" ex_rs1_data [31:0] $end
$var reg 5 q" ex_rs2 [4:0] $end
$var reg 32 r" ex_rs2_data [31:0] $end
$var reg 2 s" ex_wb_sel [1:0] $end
$upscope $end
$scope module IF_ID $end
$var wire 1 ! clk $end
$var wire 1 t" enable $end
$var wire 1 * flush $end
$var wire 1 " reset $end
$var wire 32 u" pc_plus4 [31:0] $end
$var wire 32 v" pc_current [31:0] $end
$var wire 32 w" instruction [31:0] $end
$var reg 32 x" id_instruction [31:0] $end
$var reg 32 y" id_pc_current [31:0] $end
$var reg 32 z" id_pc_plus4 [31:0] $end
$upscope $end
$scope module IMEM $end
$var wire 32 {" instruction [31:0] $end
$var wire 32 |" address [31:0] $end
$upscope $end
$scope module IMM_GEN $end
$var wire 32 }" instruction [31:0] $end
$var wire 7 ~" opcode [6:0] $end
$var reg 32 !# imm_out [31:0] $end
$upscope $end
$scope module MEM_WB $end
$var wire 1 ! clk $end
$var wire 32 "# mem_alu_result [31:0] $end
$var wire 32 ## mem_data [31:0] $end
$var wire 32 $# mem_pc_plus4 [31:0] $end
$var wire 5 %# mem_rd [4:0] $end
$var wire 1 D mem_reg_write $end
$var wire 2 &# mem_wb_sel [1:0] $end
$var wire 1 " reset $end
$var reg 32 '# wb_alu_result [31:0] $end
$var reg 32 (# wb_mem_data [31:0] $end
$var reg 32 )# wb_pc_plus4 [31:0] $end
$var reg 5 *# wb_rd [4:0] $end
$var reg 1 0 wb_reg_write $end
$var reg 2 +# wb_wb_sel [1:0] $end
$upscope $end
$scope module NEXT_PC_MUX $end
$var wire 1 n branch $end
$var wire 1 $ branch_taken $end
$var wire 32 ,# branch_target [31:0] $end
$var wire 32 -# jal_target [31:0] $end
$var wire 1 k jalr $end
$var wire 32 .# jalr_target [31:0] $end
$var wire 1 j jump $end
$var wire 32 /# pc_plus4 [31:0] $end
$var reg 32 0# next_pc [31:0] $end
$upscope $end
$scope module PC $end
$var wire 1 ! clk $end
$var wire 1 1# pc_enable $end
$var wire 32 2# pc_next [31:0] $end
$var wire 1 " reset $end
$var reg 32 3# pc_current [31:0] $end
$upscope $end
$scope module PC_PLUS4 $end
$var wire 32 4# pc_current [31:0] $end
$var wire 32 5# pc_next [31:0] $end
$upscope $end
$scope module REGFILE $end
$var wire 1 ! clk $end
$var wire 5 6# rd [4:0] $end
$var wire 1 0 reg_write $end
$var wire 1 " reset $end
$var wire 5 7# rs1 [4:0] $end
$var wire 5 8# rs2 [4:0] $end
$var wire 32 9# write_data [31:0] $end
$var wire 32 :# read_data2 [31:0] $end
$var wire 32 ;# read_data1 [31:0] $end
$var integer 32 <# i [31:0] $end
$upscope $end
$scope module WB_MUX $end
$var wire 32 =# alu_result [31:0] $end
$var wire 32 ># mem_data [31:0] $end
$var wire 32 ?# pc_plus4 [31:0] $end
$var wire 2 @# wb_sel [1:0] $end
$var reg 32 A# writeback_data [31:0] $end
$upscope $end
$upscope $end
$scope task final_report $end
$upscope $end
$upscope $end
$enddefinitions $end
$comment Show the parameter values. $end
$dumpall
$end
#0
$dumpvars
b0 A#
b0 @#
b0 ?#
b0 >#
b0 =#
b100000 <#
b0 ;#
b0 :#
b0 9#
b0 8#
b0 7#
b0 6#
b100 5#
b0 4#
b0 3#
b100 2#
11#
b100 0#
b100 /#
b0 .#
b0 -#
b0 ,#
b0 +#
b0 *#
b0 )#
b0 (#
b0 '#
b0 &#
b0 %#
b0 $#
b0 ##
b0 "#
b0 !#
b0 ~"
b0 }"
b0 |"
b10100000000000010010011 {"
b0 z"
b0 y"
b0 x"
b10100000000000010010011 w"
b0 v"
b100 u"
1t"
b0 s"
b0 r"
b0 q"
b0 p"
b0 o"
b0 n"
b0 m"
b0 l"
b0 k"
b0 j"
b0 i"
b0 h"
b0 g"
b0 f"
b0 e"
b0 d"
b0 c"
b0 b"
b0 a"
0`"
b0 _"
0^"
0]"
0\"
0["
b0 Z"
0Y"
0X"
b1111 W"
b0 V"
b0 U"
b0 T"
b0 S"
b0 R"
b0 Q"
b0 P"
b0 O"
b0 N"
b0 M"
b0 L"
b0 K"
b0 J"
b0 I"
b0 H"
b0 G"
b0 F"
b0 E"
b0 D"
b0 C"
b0 B"
b0 A"
b0 @"
b0 ?"
b0 >"
b0 ="
b0 <"
b0 ;"
b0 :"
b0 9"
b0 8"
b0 7"
b0 6"
b0 5"
b0 4"
b0 3"
02"
b0 1"
b0 0"
b0 /"
b0 ."
b0 -"
b0 ,"
b0 +"
b0 *"
b0 )"
b0 ("
b1111 '"
b0 &"
b0 %"
b0 $"
b0 #"
b0 ""
b0 !"
b0 ~
bx }
bx |
b0 {
b0 z
bx y
bx x
b0 w
b0 v
b1111 u
0t
0s
b0 r
1q
b0 p
0o
0n
b0 m
b0 l
0k
0j
0i
b0 h
b0 g
b0 f
0e
b0 d
b0 c
b0 b
b0 a
b0 `
b0 _
b0 ^
b0 ]
b0 \
b0 [
b0 Z
b0 Y
b0 X
b10100000000000010010011 W
b0 V
0U
b0 T
0S
b0 R
0Q
0P
b0 O
b0 N
b0 M
0L
b0 K
0J
0I
0H
b0 G
b0 F
0E
0D
b0 C
b0 B
0A
b100 @
b0 ?
b0 >
b100 =
b0 <
0;
0:
b0 9
b0 8
b0 7
b0 6
05
b0 4
b0 3
b0 2
b0 1
00
b0 /
b0 .
b0 -
0,
0+
0*
b0 )
b0 (
b0 '
b10100000000000010010011 &
b0 %
0$
0#
1"
0!
$end
#5000
b0 |
b0 x
b0 }
b0 y
b100000 <#
1!
#10000
0!
#15000
b100000 <#
1!
#20000
0!
0"
#25000
1`"
1X"
b101 X
b101 f"
b101 !#
b0 u
b0 '"
b0 W"
1:
1t
b101000000000000100010011 &
b101000000000000100010011 W
b101000000000000100010011 w"
b101000000000000100010011 {"
b10011 ~"
b101 7
b101 4"
b101 U"
b101 b"
b101 8#
b1 <
b1 6"
b1 _"
b10011 ?
b10011 $"
b10011 1"
b10011 7"
b1000 @
b1000 0#
b1000 2#
b1 x
b1111 p
b1111 ""
b1111 i"
b10100000000000010010011 [
b10100000000000010010011 8"
b10100000000000010010011 x"
b10100000000000010010011 }"
b100 Y
b100 g"
b100 z"
b1000 =
b1000 u"
b1000 /#
b1000 5#
b100 (
b100 >
b100 v"
b100 |"
b100 3#
b100 4#
1!
#30000
0!
#35000
b100 T
b100 B"
b100 .#
b1000001000000110110011 &
b1000001000000110110011 W
b1000001000000110110011 w"
b1000001000000110110011 {"
b101 %
b101 v
b101 #"
b101 >"
b1010 7
b1010 4"
b1010 U"
b1010 b"
b1010 8#
b10 <
b10 6"
b10 _"
b1010 X
b1010 f"
b1010 !#
b101 w
b101 !"
b101 )"
b1100 @
b1100 0#
b1100 2#
b10 x
b1100 =
b1100 u"
b1100 /#
b1100 5#
b1000 (
b1000 >
b1000 v"
b1000 |"
b1000 3#
b1000 4#
b101000000000000100010011 [
b101000000000000100010011 8"
b101000000000000100010011 x"
b101000000000000100010011 }"
b1000 Y
b1000 g"
b1000 z"
b100 Z
b100 h"
b100 y"
b101 b
b101 P"
b101 q"
1e
1o
b0 p
b0 ""
b0 i"
b1 f
b1 D"
b1 V"
b1 n"
b101 r
b101 ,"
b101 ?"
b101 ,#
b101 V
b101 A"
b101 -#
b101 l
b101 *"
b101 -"
b101 k"
b100 g
b100 E"
b100 m"
1!
#40000
0!
#45000
b1010 T
b1010 B"
b1010 .#
0X"
b1010 %
b1010 v
b1010 #"
b1010 >"
1:
0t
b1100000010000000100011 &
b1100000010000000100011 W
b1100000010000000100011 w"
b1100000010000000100011 {"
b1010 w
b1010 !"
b1010 )"
b110011 ~"
b10 7
b10 4"
b10 U"
b10 b"
b10 8#
b1 9
b1 5"
b1 T"
b1 a"
b1 7#
b11 <
b11 6"
b11 _"
b110011 ?
b110011 $"
b110011 1"
b110011 7"
b0 X
b0 f"
b0 !#
b10000 @
b10000 0#
b10000 2#
b11 x
1D
b100 K
b100 I"
b101 M
b101 H"
b101 O
b101 G"
b100 G
b100 J"
b100 $#
b1 F
b1 K"
b1 N"
b1 %#
b101 R
b101 <"
b101 F"
b101 "#
b1010 b
b1010 P"
b1010 q"
b10 f
b10 D"
b10 V"
b10 n"
b1010 l
b1010 *"
b1010 -"
b1010 k"
b1000 g
b1000 E"
b1000 m"
b1110 r
b1110 ,"
b1110 ?"
b1110 ,#
b1110 V
b1110 A"
b1110 -#
b100 h
b100 +"
b100 l"
b1000001000000110110011 [
b1000001000000110110011 8"
b1000001000000110110011 x"
b1000001000000110110011 }"
b1100 Y
b1100 g"
b1100 z"
b1000 Z
b1000 h"
b1000 y"
b10000 =
b10000 u"
b10000 /#
b10000 5#
b1100 (
b1100 >
b1100 v"
b1100 |"
b1100 3#
b1100 4#
1!
#50000
0!
#55000
1,
b1110 T
b1110 B"
b1110 .#
1^"
1X"
0`"
b10001000000011 &
b10001000000011 W
b10001000000011 w"
b10001000000011 {"
b1111 u
b1111 '"
b1111 W"
1A
1t
0:
b1111 %
b1111 v
b1111 #"
b1111 >"
0q
b100011 ~"
b11 7
b11 4"
b11 U"
b11 b"
b11 8#
b0 9
b0 5"
b0 T"
b0 a"
b0 7#
b10 ]
b10 &"
b10 :"
b10 Z"
b0 <
b0 6"
b0 _"
b100011 ?
b100011 $"
b100011 1"
b100011 7"
b10100 @
b10100 0#
b10100 2#
b1010 {
b1010 ("
b1010 /"
b1010 @"
b101 z
b101 ~
b101 ."
b1 _
b1 R"
b10 ^
b10 S"
b101 )
b101 -
b101 9#
b101 A#
b100 x
b10100 =
b10100 u"
b10100 /#
b10100 5#
b10000 (
b10000 >
b10000 v"
b10000 |"
b10000 3#
b10000 4#
b1100000010000000100011 [
b1100000010000000100011 8"
b1100000010000000100011 x"
b1100000010000000100011 }"
b10000 Y
b10000 g"
b10000 z"
b1100 Z
b1100 h"
b1100 y"
b10 b
b10 P"
b10 q"
b1 d
b1 Q"
b1 o"
0o
b11 f
b11 D"
b11 V"
b11 n"
b0 l
b0 *"
b0 -"
b0 k"
b1100 g
b1100 E"
b1100 m"
b1000 r
b1000 ,"
b1000 ?"
b1000 ,#
b1000 V
b1000 A"
b1000 -#
b1000 h
b1000 +"
b1000 l"
b1010 K
b1010 I"
b1110 M
b1110 H"
b1110 O
b1110 G"
b1000 G
b1000 J"
b1000 $#
b10 F
b10 K"
b10 N"
b10 %#
b1010 R
b1010 <"
b1010 F"
b1010 "#
10
b1 1
b1 O"
b1 *#
b1 6#
b100 2
b100 )#
b100 ?#
b101 4
b101 '#
b101 =#
1!
#60000
0!
#65000
b0 T
b0 B"
b0 .#
b1 c"
1]"
1`"
0^"
b1 /
b1 3"
1E
1:
0A
1t
b1100100000001010110011 &
b1100100000001010110011 W
b1100100000001010110011 w"
b1100100000001010110011 {"
b1010 )
b1010 -
b1010 9#
b1010 A#
b1111 {
b1111 ("
b1111 /"
b1111 @"
b0 z
b0 ~
b0 ."
b10 ^
b10 S"
b0 _
b0 R"
b0 w
b0 !"
b0 )"
b0 %
b0 v
b0 #"
b0 >"
b11 ~"
b0 7
b0 4"
b0 U"
b0 b"
b0 8#
b100 <
b100 6"
b100 _"
b11 ?
b11 $"
b11 1"
b11 7"
b0 X
b0 f"
b0 !#
b11000 @
b11000 0#
b11000 2#
b1 |
b101 x
b10 1
b10 O"
b10 *#
b10 6#
b1000 2
b1000 )#
b1000 ?#
b1010 4
b1010 '#
b1010 =#
b1110 K
b1110 I"
b1000 M
b1000 H"
b1000 O
b1000 G"
b1100 G
b1100 J"
b1100 $#
b11 F
b11 K"
b11 N"
b11 %#
b1010 C
b1010 ;"
b1010 L"
b1111 R
b1111 <"
b1111 F"
b1111 "#
b11 b
b11 P"
b11 q"
b0 d
b0 Q"
b0 o"
0e
1i
1o
b1111 p
b1111 ""
b1111 i"
b10 m
b10 0"
b10 j"
b0 f
b0 D"
b0 V"
b0 n"
b10000 g
b10000 E"
b10000 m"
b1100 r
b1100 ,"
b1100 ?"
b1100 ,#
b1100 V
b1100 A"
b1100 -#
b1100 h
b1100 +"
b1100 l"
b10001000000011 [
b10001000000011 8"
b10001000000011 x"
b10001000000011 }"
b10100 Y
b10100 g"
b10100 z"
b10000 Z
b10000 h"
b10000 y"
b11000 =
b11000 u"
b11000 /#
b11000 5#
b10100 (
b10100 >
b10100 v"
b10100 |"
b10100 3#
b10100 4#
1!
#70000
0!
#75000
0t"
01#
1+
b0 c"
0`"
0]"
0X"
b1000001000010001100011 &
b1000001000010001100011 W
b1000001000010001100011 w"
b1000001000010001100011 {"
15
b0 u
b0 '"
b0 W"
b0 /
b0 3"
1:
0E
0t
b110011 ~"
b11 7
b11 4"
b11 U"
b11 b"
b11 8#
b100 9
b100 5"
b100 T"
b100 a"
b100 7#
b0 ]
b0 &"
b0 :"
b0 Z"
b101 <
b101 6"
b101 _"
b110011 ?
b110011 $"
b110011 1"
b110011 7"
b0 X
b0 f"
b0 !#
b11100 @
b11100 0#
b11100 2#
b0 {
b0 ("
b0 /"
b0 @"
b0 ^
b0 S"
b1111 )
b1111 -
b1111 9#
b1111 A#
b10 |
b110 x
b11100 =
b11100 u"
b11100 /#
b11100 5#
b11000 (
b11000 >
b11000 v"
b11000 |"
b11000 3#
b11000 4#
b1100100000001010110011 [
b1100100000001010110011 8"
b1100100000001010110011 x"
b1100100000001010110011 }"
b11000 Y
b11000 g"
b11000 z"
b10100 Z
b10100 h"
b10100 y"
b0 b
b0 P"
b0 q"
b1 `
b1 C"
b1 s"
1e
0i
1;
b100 f
b100 D"
b100 V"
b100 n"
b10100 g
b10100 E"
b10100 m"
b10000 r
b10000 ,"
b10000 ?"
b10000 ,#
b10000 V
b10000 A"
b10000 -#
b10000 h
b10000 +"
b10000 l"
0D
1H
b0 K
b0 I"
b1100 M
b1100 H"
b1100 O
b1100 G"
b10000 G
b10000 J"
b10000 $#
b0 F
b0 K"
b0 N"
b0 %#
b1111 C
b1111 ;"
b1111 L"
b0 R
b0 <"
b0 F"
b0 "#
b11 1
b11 O"
b11 *#
b11 6#
b1100 2
b1100 )#
b1100 ?#
b1111 4
b1111 '#
b1111 =#
1!
#80000
0!
#85000
0,
1t"
11#
1`"
0+
b0 )
b0 -
b0 9#
b0 A#
b1111 '
b1111 N
b1111 ="
b1111 ##
b10 _
b10 R"
1q
05
b1111 6
b1111 d"
b1111 :#
b11 |
b111 x
b1 }
00
b0 1
b0 O"
b0 *#
b0 6#
b10000 2
b10000 )#
b10000 ?#
b0 4
b0 '#
b0 =#
b1 B
b1 M"
b1 &#
1D
0H
1I
b10000 M
b10000 H"
b10000 O
b10000 G"
b10100 G
b10100 J"
b10100 $#
b100 F
b100 K"
b100 N"
b100 %#
b0 C
b0 ;"
b0 L"
b11 b
b11 P"
b11 q"
b100 d
b100 Q"
b100 o"
b0 `
b0 C"
b0 s"
0e
0;
0o
b0 p
b0 ""
b0 i"
b0 m
b0 0"
b0 j"
b101 f
b101 D"
b101 V"
b101 n"
b11000 g
b11000 E"
b11000 m"
b10100 r
b10100 ,"
b10100 ?"
b10100 ,#
b10100 V
b10100 A"
b10100 -#
b10100 h
b10100 +"
b10100 l"
1!
#90000
0!
#95000
1,
b11110 T
b11110 B"
b11110 .#
b1010 6
b1010 d"
b1010 :#
b101 8
b101 e"
b101 ;#
1Y"
0`"
b110001100000000001100010011 &
b110001100000000001100010011 W
b110001100000000001100010011 w"
b110001100000000001100010011 {"
b1000 X
b1000 f"
b1000 !#
b1111 u
b1111 '"
b1111 W"
1s
0:
b1111 w
b1111 !"
b1111 )"
b11110 %
b11110 v
b11110 #"
b11110 >"
b100000 @
b100000 0#
b100000 2#
b1100011 ~"
b10 7
b10 4"
b10 U"
b10 b"
b10 8#
b1 9
b1 5"
b1 T"
b1 a"
b1 7#
b1000 <
b1000 6"
b1000 _"
b1100011 ?
b1100011 $"
b1100011 1"
b1100011 7"
b1111 {
b1111 ("
b1111 /"
b1111 @"
b1111 z
b1111 ~
b1111 ."
b0 '
b0 N
b0 ="
b0 ##
b1 _
b1 R"
b1111 )
b1111 -
b1111 9#
b1111 A#
b1000 x
b100000 =
b100000 u"
b100000 /#
b100000 5#
b11100 (
b11100 >
b11100 v"
b11100 |"
b11100 3#
b11100 4#
b1000001000010001100011 [
b1000001000010001100011 8"
b1000001000010001100011 x"
b1000001000010001100011 }"
b11100 Y
b11100 g"
b11100 z"
b11000 Z
b11000 h"
b11000 y"
1e
b1111 a
b1111 r"
b0 B
b0 M"
b0 &#
0D
0I
b10100 M
b10100 H"
b10100 O
b10100 G"
b11000 G
b11000 J"
b11000 $#
b101 F
b101 K"
b101 N"
b101 %#
b1 .
b1 +#
b1 @#
10
b100 1
b100 O"
b100 *#
b100 6#
b10100 2
b10100 )#
b10100 ?#
b1111 3
b1111 (#
b1111 >#
1!
#100000
0!
#105000
0*
b0 T
b0 B"
b0 .#
b1111 6
b1111 d"
b1111 :#
1`"
1X"
0Y"
b101 z
b101 ~
b101 ."
b1010 w
b1010 !"
b1010 )"
0q
b0 8
b0 e"
b0 ;#
b0 u
b0 '"
b0 W"
1:
1t
0s
b100000000001110010011 &
b100000000001110010011 W
b100000000001110010011 w"
b100000000001110010011 {"
b0 )
b0 -
b0 9#
b0 A#
b0 _
b0 R"
0$
b0 %
b0 v
b0 #"
b0 >"
b1010 {
b1010 ("
b1010 /"
b1010 @"
b10011 ~"
b11 \
b11 %"
b11 9"
b11 7
b11 4"
b11 U"
b11 b"
b11 8#
b0 9
b0 5"
b0 T"
b0 a"
b0 7#
b110 <
b110 6"
b110 _"
b10011 ?
b10011 $"
b10011 1"
b10011 7"
b1100011 X
b1100011 f"
b1100011 !#
b100100 @
b100100 0#
b100100 2#
b100 |
b1001 x
b0 .
b0 +#
b0 @#
00
b101 1
b101 O"
b101 *#
b101 6#
b11000 2
b11000 )#
b11000 ?#
b0 3
b0 (#
b0 >#
1D
b11110 K
b11110 I"
b1111 C
b1111 ;"
b1111 L"
b11110 R
b11110 <"
b11110 F"
b11110 "#
b10 b
b10 P"
b10 q"
b1 d
b1 Q"
b1 o"
1n
0e
b1111 p
b1111 ""
b1111 i"
b1000 f
b1000 D"
b1000 V"
b1000 n"
b1000 l
b1000 *"
b1000 -"
b1000 k"
b1010 a
b1010 r"
b101 c
b101 p"
b11100 g
b11100 E"
b11100 m"
b100000 r
b100000 ,"
b100000 ?"
b100000 ,#
b100000 V
b100000 A"
b100000 -#
b11000 h
b11000 +"
b11000 l"
b110001100000000001100010011 [
b110001100000000001100010011 8"
b110001100000000001100010011 x"
b110001100000000001100010011 }"
b100000 Y
b100000 g"
b100000 z"
b11100 Z
b11100 h"
b11100 y"
b100100 =
b100100 u"
b100100 /#
b100100 5#
b100000 (
b100000 >
b100000 v"
b100000 |"
b100000 3#
b100000 4#
1!
#110000
0!
#115000
b101 6
b101 d"
b101 :#
b1100010 T
b1100010 B"
b1100010 .#
b100000000000000011101111 &
b100000000000000011101111 W
b100000000000000011101111 w"
b100000000000000011101111 {"
b0 \
b0 %"
b0 9"
b1 7
b1 4"
b1 U"
b1 b"
b1 8#
b111 <
b111 6"
b111 _"
b1 X
b1 f"
b1 !#
b1100011 w
b1100011 !"
b1100011 )"
b1100011 %
b1100011 v
b1100011 #"
b1100011 >"
b101000 @
b101000 0#
b101000 2#
b1111 {
b1111 ("
b1111 /"
b1111 @"
b0 z
b0 ~
b0 ."
b11110 )
b11110 -
b11110 9#
b11110 A#
b101 |
b1010 x
b101000 =
b101000 u"
b101000 /#
b101000 5#
b100100 (
b100100 >
b100100 v"
b100100 |"
b100100 3#
b100100 4#
b100000000001110010011 [
b100000000001110010011 8"
b100000000001110010011 x"
b100000000001110010011 }"
b100100 Y
b100100 g"
b100100 z"
b100000 Z
b100000 h"
b100000 y"
b11 b
b11 P"
b11 q"
b0 d
b0 Q"
b0 o"
0n
1e
1o
b0 p
b0 ""
b0 i"
b110 f
b110 D"
b110 V"
b110 n"
b1100011 l
b1100011 *"
b1100011 -"
b1100011 k"
b1111 a
b1111 r"
b0 c
b0 p"
b100000 g
b100000 E"
b100000 m"
b1111111 r
b1111111 ,"
b1111111 ?"
b1111111 ,#
b1111111 V
b1111111 A"
b1111111 -#
b11100 h
b11100 +"
b11100 l"
1Q
0D
b0 K
b0 I"
b100000 M
b100000 H"
b100000 O
b100000 G"
b11100 G
b11100 J"
b11100 $#
b1000 F
b1000 K"
b1000 N"
b1000 %#
b1010 C
b1010 ;"
b1010 L"
b0 R
b0 <"
b0 F"
b0 "#
10
b11110 4
b11110 '#
b11110 =#
1!
#120000
0!
